<svg width="90" height="104" viewBox="0 0 90 104" fill="none" xmlns="http://www.w3.org/2000/svg">
<path d="M59.972 52.042L90 25.8949L52.507 39.0105L44.9581 0L37.493 39.0105L0 25.8949L29.9441 52.042L0 78.1051L37.493 65.1576L44.9581 104L52.507 65.1576L90 78.1051L59.972 52.042Z" fill="#19191A"/>
</svg>
